…
### 1. Airports and flights

**(a)** The `flights.csv` dataset stores all the flights that departed from New Yord City (i.e. airports JFK, LGA or EWR) in 2013. `dest` is the code of the destination airport, `arr_delay` is the arrival delay (in minutes).

```{r}
flights1 <- read_csv("flights.csv", col_names = TRUE, col_types = cols())
flights2 <- read_csv("flights.csv", col_names = TRUE, col_types = cols())
flights <- bind_rows(flights1, flights2)
```

Calculate the number of flights from NYC (`flight_num`) and the average value of arrival delay (`aver_arr_delay`) for each destination (`dest`) and name the resulting data frame `flight.per.dest`. The expected result is as follows:

```
# A tibble: 105 x 3
   dest  flight_num aver_arr_delay
   <chr>      <int>          <dbl>
 1 ABQ          254           4.38
 2 ACK          265           4.85
 3 ALB          439          14.4 
 4 ANC            8          -2.5 
 5 ATL        17215          11.3 
 6 AUS         2439           6.02
 7 AVL          275           8.00
 8 BDL          443           7.05
 9 BGR          375           8.03
10 BHM          297          16.9 
# … with 95 more rows
```
…
```

**(c)** The **USPresidential08-16.csv** file contains the county-level results for the 2008-2016 US presidential elections. 

```{r}
election_08_16 <- read_csv("USPresidential08-16.csv")
election_08_16
```

Select columns that corresponds to the 2016 eletion and calculate a variable that represents the difference in percentage of votes received by two parties (dem vs. gop). Name the new column `result`. Name the resulting tible `election_result`.

The expected output is as follows:

```
# A tibble: 3,112 x 7
    fips county             total_2016 dem_2016 gop_2016 oth_2016  result
   <int> <chr>                   <dbl>    <dbl>    <dbl>    <dbl>   <dbl>
 1 26041 Delta County            18467     6431    11112      924 -0.253 
 2 48295 Lipscomb County          1322      135     1159       28 -0.775 
 3  1127 Walker County           29243     4486    24208      549 -0.674 
 4 48389 Reeves County            3184     1659     1417      108  0.0760
 5 56017 Hot Springs County       2535      400     1939      196 -0.607 
 6 20043 Doniphan County          3366      584     2601      181 -0.599 
 7 37183 Wake County            510940   298353   193607    18980  0.205 
 8 37147 Pitt County             78264    40967    35191     2106  0.0738
 9 48497 Wise County             24661     3412    20655      594 -0.699 
10 21207 Russell County           8171     1093     6863      215 -0.706 
# . with 3,102 more rows
```
…
