Lab11
…
Tweet: ids of a tweet;

Date: the date the message got tweeted;

Candidate: the candidates capitalised last name if s/he was mentioned in the tweet. (toupper() can be used).

After getting the Count for each candidate on each day, you need to add a complete() in order to fill zero count to those days that Trump did not mention the candidate, and bind_rows() to add the starting and ending points of the graph to zero.

%>% complete(Date = seq(ymd("2015-10-1"), ymd("2016-7-30"), by = "day"), Candidate, fill = list(Count = 0)) %>%
  bind_rows(tibble(Date = ymd("2016-8-1"), Candidate = c("CRUZ", "BUSH", "CLINTON", "RUBIO"), Count = 0)) %>%
  bind_rows(tibble(Date = ymd("2015-9-29"), Candidate = c("CRUZ", "BUSH", "CLINTON", "RUBIO"), Count = 0)) %>%

TASK1: hint: using str_extract

## # A tibble: 526 x 3
##    Candidate Date       Count
##    <chr>     <date>     <int>
##  1 BUSH      2015-10-02     4
##  2 BUSH      2015-10-03     2
##  3 BUSH      2015-10-05     1
##  4 BUSH      2015-10-06     1
##  5 BUSH      2015-10-07     1
##  6 BUSH      2015-10-13     7
##  7 BUSH      2015-10-14     1
##  8 BUSH      2015-10-15     3
##  9 BUSH      2015-10-16     5
## 10 BUSH      2015-10-17     3
## #  with 516 more rows

After adding the complete code, the result will be the below.

## # A tibble: 1,224 x 3
##    Date       Candidate Count
##    <date>     <chr>     <dbl>
##  1 2015-09-29 BUSH          0
##  2 2015-09-29 CLINTON       0
##  3 2015-09-29 CRUZ          0
##  4 2015-09-29 RUBIO         0
##  5 2015-10-01 BUSH          0
##  6 2015-10-01 CLINTON       0
##  7 2015-10-01 CRUZ          3
##  8 2015-10-01 RUBIO         0
##  9 2015-10-02 BUSH          4
## 10 2015-10-02 CLINTON       0
## #  with 1,214 more rows
…
