lab7_basic plot
…
The golden cross is the intersection point of 50-day SMA and 200-day SMA that the 50-day SMA was previously lower than the 200-day SMA but now becomes higher.

(FB = read_csv("FB.csv"))

## Parsed with column specification:
## cols(
##   date = col_date(format = ""),
##   Adjusted = col_double(),
##   x50day.SMA = col_double(),
##   x200day.SMA = col_double(),
##   cross = col_character()
## )

## # A tibble: 251 x 5
##    date       Adjusted x50day.SMA x200day.SMA cross
##    <date>        <dbl>      <dbl>       <dbl> <chr>
##  1 2018-01-02     181.       178.        163. <NA> 
##  2 2018-01-03     185.       178.        163. <NA> 
##  3 2018-01-04     184.       178.        163. <NA> 
##  4 2018-01-05     187.       178.        163. <NA> 
##  5 2018-01-08     188.       179.        164. <NA> 
##  6 2018-01-09     188.       179.        164. <NA> 
##  7 2018-01-10     188.       179.        164. <NA> 
##  8 2018-01-11     188.       180.        164. <NA> 
##  9 2018-01-12     179.       180.        165. <NA> 
## 10 2018-01-16     178.       180.        165. <NA> 
## #  with 241 more rows

(AAPL = read_csv("AAPL.csv"))

## Parsed with column specification:
## cols(
##   date = col_date(format = ""),
##   Adjusted = col_double(),
##   x50day.SMA = col_double(),
##   x200day.SMA = col_double(),
##   cross = col_character()
## )

## # A tibble: 251 x 5
##    date       Adjusted x50day.SMA x200day.SMA cross
##    <date>        <dbl>      <dbl>       <dbl> <chr>
##  1 2018-01-02     167.       170.        156. <NA> 
##  2 2018-01-03     167.       170.        156. <NA> 
##  3 2018-01-04     168.       171.        156. <NA> 
##  4 2018-01-05     170.       171.        156. <NA> 
##  5 2018-01-08     169.       171.        157. <NA> 
##  6 2018-01-09     169.       172.        157. <NA> 
##  7 2018-01-10     169.       172.        157. <NA> 
##  8 2018-01-11     170.       172.        157. <NA> 
##  9 2018-01-12     172.       172.        157. <NA> 
## 10 2018-01-16     171.       173.        157. <NA> 
## #  with 241 more rows
…
