Lab 10: Wrangling and Visualizing Hong Kongâ€™s Weather Data
…
The data used is obtained from the University of Daytonâ€™s Average Daily Temperature archive website which contains daily average temperatures for 157 U.S. and 167 international cities with time spanning from January 1, 1995 to present.

Load the data to create a tibble named weather using read_table() from the readr package:

weather <- read_table("http://academic.udayton.edu/kissock/http/Weather/gsod95-current/HKHONGKG.txt", col_names = c("month", "day", "year", "temp"))

The raw data represents month, day, year, and average daily temperature (\(^\circ F\)) and looks like:

weather

## # A tibble: 9,266 x 4
##    month   day  year  temp
##    <dbl> <dbl> <dbl> <dbl>
##  1     1     1  1995  64.2
##  2     1     2  1995  64.6
##  3     1     3  1995  59.3
##  4     1     4  1995  56.6
##  5     1     5  1995  57.5
##  6     1     6  1995  58.2
##  7     1     7  1995  62.4
##  8     1     8  1995  65.2
##  9     1     9  1995  68  
## 10     1    10  1995  65.7
## # â€¦ with 9,256 more rows
…
A wheat coloured band that represents the record high and low temperatures in the years prior to the focal year (i.e., 1995-2013).

A narrower brown coloured band composed of lines, each representing the 95% confidence interval for the mean of the temperature on a day.

Two series of points that identify the days in which the focal year (2014) had the record high and low temperature.

Some quantities are summary statistics of the raw data. Certain statistical transformations are thereby needed to derive these values.

Letâ€™s wrangle our data to create a graphic of this kind.

Step 1: use proper verbs in dplyr to create a new variable named day_index that labels observations from 1 to 366 and pairs temperatures from the same day in different years. This variable will later be used as the x axis. Filter out the 29Feb to simplify the process.

Hint: keep only observations from 1995-2018, use by-group arrange to sort observations in ascending order for every year, and use row_number() to generate the indices. Remeber to assign the augmented tibble back to weather

## # A tibble: 8,761 x 5
##    month   day  year  temp day_index
##    <dbl> <dbl> <dbl> <dbl>     <int>
##  1     1     1  1995  64.2         1
##  2     1     2  1995  64.6         2
##  3     1     3  1995  59.3         3
##  4     1     4  1995  56.6         4
##  5     1     5  1995  57.5         5
##  6     1     6  1995  58.2         6
##  7     1     7  1995  62.4         7
##  8     1     8  1995  65.2         8
##  9     1     9  1995  68           9
## 10     1    10  1995  65.7        10
## # â€¦ with 8,751 more rows
Step 2: Summarizing our data reveals some bizarre value for temp.

summary(weather)

##      month             day             year           temp          day_index  
##  Min.   : 1.000   Min.   : 1.00   Min.   :1995   Min.   :-99.00   Min.   :  1  
##  1st Qu.: 4.000   1st Qu.: 8.00   1st Qu.:2001   1st Qu.: 68.10   1st Qu.: 92  
##  Median : 7.000   Median :16.00   Median :2007   Median : 78.10   Median :183  
##  Mean   : 6.524   Mean   :15.72   Mean   :2007   Mean   : 75.17   Mean   :183  
##  3rd Qu.:10.000   3rd Qu.:23.00   3rd Qu.:2013   3rd Qu.: 84.00   3rd Qu.:274  
##  Max.   :12.000   Max.   :31.00   Max.   :2018   Max.   : 92.40   Max.   :366

The â€œ-99â€ flag denotes the missing data, which should be approximated as the mean of the daily temperatures 2 days before and after the missing data. The following code performs such an imputation proceduere.

## # A tibble: 8,761 x 5
## # Rowwise: 
##    month   day  year  temp day_index
##    <dbl> <dbl> <dbl> <dbl>     <int>
##  1     1     1  1995  64.2         1
##  2     1     2  1995  64.6         2
##  3     1     3  1995  59.3         3
##  4     1     4  1995  56.6         4
##  5     1     5  1995  57.5         5
##  6     1     6  1995  58.2         6
##  7     1     7  1995  62.4         7
##  8     1     8  1995  65.2         8
##  9     1     9  1995  68           9
## 10     1    10  1995  65.7        10
## # â€¦ with 8,751 more rows

Step 3: Partition observations in weather into two tibbles. One named weather_past contains observations from 1995-2017, while the other named weather_2018 contains only the data from 2018.

## # A tibble: 8,761 x 5
## # Rowwise: 
##    month   day  year  temp day_index
##    <dbl> <dbl> <dbl> <dbl>     <int>
##  1     1     1  1995  64.2         1
##  2     1     2  1995  64.6         2
##  3     1     3  1995  59.3         3
##  4     1     4  1995  56.6         4
##  5     1     5  1995  57.5         5
##  6     1     6  1995  58.2         6
##  7     1     7  1995  62.4         7
##  8     1     8  1995  65.2         8
##  9     1     9  1995  68           9
## 10     1    10  1995  65.7        10
## # â€¦ with 8,751 more rows

Step 4: use weather_past to construct a summary table named weather_sum containing historical highest and lowest temperatures (variable temp_max and temp_min) as well as the standard error (temp_se = sd(temp)/sqrt(length(temp)-1)) and average (variable temp_avg) of temperatures for each day.

## # A tibble: 366 x 5
##    day_index temp_min temp_max temp_se temp_avg
##        <int>    <dbl>    <dbl>   <dbl>    <dbl>
##  1         1     50.4     72.4   1.03      63.7
##  2         2     52.9     70.2   0.956     63.9
##  3         3     51       71     1.03      63.7
##  4         4     52       72.2   1.24      63.6
##  5         5     49.6     72.9   1.22      63.5
##  6         6     48.6     72.6   1.49      62.7
##  7         7     50.3     73.2   1.41      62.4
##  8         8     53.2     73.5   1.27      62.6
##  9         9     55.2     72.5   1.08      62.1
## 10        10     54.4     72.4   1.08      62.8
## # â€¦ with 356 more rows
…
